{
    "status": 200,
    "count": 16,
    "response": [
        {
            "name": "Angel",
            "fullnameTh": [
                "นภัสนันท์",
                "ธรรมบัวชา"
            ],
            "fullnameEn": [
                "Napassanan",
                "Thambuacha"
            ],
            "team": "C",
            "birthday": "2002-04-06",
            "province": "Nakorn Pathom",
            "favorite": [
                "Stella lou",
                "Shellie may (Duffy and friends)"
            ],
            "hobby": [],
            "img": "https://cdn.statically.io/gl/cpx2017/iamprofile@main/bnk4thalbum/profile/cgm/angel.jpg",
            "ref": "https://www.cgm48official.com/members/angel",
            "follow": [
                "https://www.facebook.com/cgm48official.angel",
                "https://www.instagram.com/angel.cgm48official"
            ],
            "graduated": false,
            "keyword": [
                "angel",
                "Angel",
                "ANGEL"
            ],
            "gen": 1,
            "jankenRank": 1,
            "jankenScore": 6
        },
        {
            "name": "Patt",
            "fullnameTh": [
                "ภัทรา",
                "ธีระวาส"
            ],
            "fullnameEn": [
                "Pattra",
                "Theeravas"
            ],
            "team": [
                "Trainee"
            ],
            "birthday": "2008-06-17",
            "province": "",
            "favorite": [
                "Carebear"
            ],
            "hobby": [
                "Enjoy Eating"
            ],
            "img": "https://cdn.statically.io/gl/cpx2017/iamprofile@main/bnk4thalbum/profile/bnk/patt.jpg",
            "ref": "https://www.bnk48.com/index.php?page=listMembers&memberId=106",
            "follow": [
                "https://www.facebook.com/bnk48official.patt",
                "https://www.instagram.com/patt.bnk48official"
            ],
            "graduated": false,
            "keyword": [
                "Patt",
                "patt",
                "PATT"
            ],
            "gen": 4,
            "jankenRank": 2,
            "jankenScore": 5
        },
        {
            "name": "Phukkhom",
            "fullnameTh": [
                "สิริการย์",
                "ชินวัชร์สุวรรณ"
            ],
            "fullnameEn": [
                "Sirikarn",
                "Shinnawatsuwan"
            ],
            "team": [
                "NV"
            ],
            "birthday": "1998-02-28",
            "province": "Samut Prakan",
            "favorite": [
                "Japanese Dolls",
                "Ghost Story",
                "Princess"
            ],
            "hobby": [
                "Singing",
                "Watching Movie",
                "Drawing",
                "D.I.Y job"
            ],
            "img": "https://cdn.statically.io/gl/cpx2017/iamprofile@main/bnk4thalbum/profile/bnk/phukkhom.jpg",
            "ref": "https://www.bnk48.com/index.php?page=listMembers&memberId=30",
            "follow": [
                "https://www.facebook.com/bnk48official.phukkhom",
                "https://www.instagram.com/phukkhom.bnk48office"
            ],
            "graduated": false,
            "keyword": [
                "phukkhom",
                "Phukkhom",
                "PHUKKHOM"
            ],
            "gen": 2,
            "jankenRank": 3,
            "jankenScore": 4
        },
        {
            "name": "Nana",
            "fullnameTh": [
                "เพ็ญพิชญา",
                "บุญเสนอ"
            ],
            "fullnameEn": [
                "Penpichaya",
                "Boonsaner"
            ],
            "team": "",
            "birthday": "2003-02-27",
            "province": "",
            "favorite": [
                "Salmon",
                "Dogs",
                "Nature"
            ],
            "hobby": [
                "Sleeping",
                "Listening music",
                "Playing games",
                "Watching movie"
            ],
            "img": "https://cdn.statically.io/gl/cpx2017/iamprofile@main/bnk4thalbum/profile/cgm/nana.jpg",
            "ref": "https://www.cgm48official.com/members/nana",
            "follow": [
                "https://www.facebook.com/cgm48official.nana",
                "https://www.instagram.com/nana.cgm48official"
            ],
            "graduated": false,
            "keyword": [
                "nana",
                "Nana",
                "NANA"
            ],
            "gen": 2,
            "jankenRank": 4,
            "jankenScore": 4
        },
        {
            "name": "Champoo",
            "fullnameTh": [
                "กชพร",
                "ลีละทีป"
            ],
            "fullnameEn": [
                "Kodchaporn",
                "Leelatheep"
            ],
            "team": "C",
            "birthday": "2005-10-10",
            "province": "Lampang",
            "favorite": [
                "Stitch (Disney's Movie Character)",
                "Cute Keychain",
                "Disney's original motion soundtrack",
                "Cats"
            ],
            "hobby": [
                "Listening Music",
                "Singing",
                "Drawing",
                "Watching Movies and Cartoons"
            ],
            "img": "https://cdn.statically.io/gl/cpx2017/iamprofile@main/bnk4thalbum/profile/cgm/champoo.jpg",
            "ref": "https://www.cgm48official.com/members/champoo",
            "follow": [
                "https://www.facebook.com/cgm48official.champoo",
                "https://www.instagram.com/champoo.cgm48official"
            ],
            "graduated": false,
            "keyword": [
                "champoo",
                "Champoo",
                "CHAMPOO"
            ],
            "gen": 1,
            "jankenRank": 5,
            "jankenScore": 3
        },
        {
            "name": "Gygee",
            "fullnameTh": [
                "ณัฐกุล",
                "พิมพ์ธงชัยกุล"
            ],
            "fullnameEn": [
                "Nuttakul",
                "Pimtongchaikul"
            ],
            "team": [
                "NV"
            ],
            "birthday": "2001-10-04",
            "province": "Bangkok",
            "favorite": [
                "Unicon Dolls",
                "Cats"
            ],
            "hobby": [
                "Reading Comics",
                "Watching Series",
                "Playing Badminton",
                "Singing"
            ],
            "img": "https://cdn.statically.io/gl/cpx2017/iamprofile@main/bnk4thalbum/profile/bnk/gygee.jpg",
            "ref": "https://www.bnk48.com/index.php?page=listMembers&memberId=45",
            "follow": [
                "https://www.facebook.com/bnk48official.gygee",
                "https://www.instagram.com/gygee.bnk48official"
            ],
            "graduated": false,
            "keyword": [
                "gygee",
                "Gygee",
                "GYGEE"
            ],
            "gen": 2,
            "jankenRank": 6,
            "jankenScore": 3
        },
        {
            "name": "Kaiwan",
            "fullnameTh": [
                "มานิตา",
                "จันทร์ฉาย"
            ],
            "fullnameEn": [
                "Manita",
                "Chanchai"
            ],
            "team": "C",
            "birthday": "2004-01-06",
            "province": "Phitsanulok",
            "favorite": [
                "Kaew (The BNK48 Member)",
                "Enjoy Eating",
                "Watching Movies",
                "Traveling"
            ],
            "hobby": [
                "Grilled Pork"
            ],
            "img": "https://cdn.statically.io/gl/cpx2017/iamprofile@main/bnk4thalbum/profile/cgm/kaiwan.jpg",
            "ref": "https://www.cgm48official.com/members/kaiwan",
            "follow": [
                "https://www.facebook.com/cgm48official.kaiwan",
                "https://www.instagram.com/kaiwan.cgm48official"
            ],
            "graduated": false,
            "keyword": [
                "kaiwan",
                "Kaiwan",
                "KAIWAN"
            ],
            "gen": 1,
            "jankenRank": 7,
            "jankenScore": 3
        },
        {
            "name": "Wee",
            "fullnameTh": [
                "วีรยา",
                "จาง"
            ],
            "fullnameEn": [
                "Weeraya",
                "Zhang"
            ],
            "team": [
                "BIII"
            ],
            "birthday": "2001-10-23",
            "province": "Chonburi",
            "favorite": [
                "Salad",
                "Vegetables (Except Celery)"
            ],
            "hobby": [
                "Watching movies",
                "Swimming",
                "Playing games"
            ],
            "img": "https://cdn.statically.io/gl/cpx2017/iamprofile@main/bnk4thalbum/profile/bnk/wee.jpg",
            "ref": "https://www.bnk48.com/index.php?page=listMembers&memberId=27",
            "follow": [
                "https://www.facebook.com/bnk48official.wee",
                "https://www.instagram.com/wee.bnk48official"
            ],
            "graduated": false,
            "keyword": [
                "wee",
                "Wee",
                "WEE"
            ],
            "gen": 2,
            "jankenRank": 8,
            "jankenScore": 3
        },
        {
            "name": "Fond",
            "fullnameTh": [
                "ณัฐทิชา",
                "จันทรวารีเลขา"
            ],
            "fullnameEn": [
                "Natticha",
                "Chantaravareelekha"
            ],
            "team": [
                "NV"
            ],
            "birthday": "2002-12-03",
            "province": "Prachuap Khiri Khan",
            "favorite": [
                "Spicy Foods",
                "Pastel tones Stationary",
                "Corgi Dogs",
                "Horror Movies"
            ],
            "hobby": [
                "Dancing",
                "Cartoon Dubbing",
                "Watching Movies",
                "Singing"
            ],
            "img": "https://cdn.statically.io/gl/cpx2017/iamprofile@main/bnk4thalbum/profile/bnk/fond.jpg",
            "ref": "https://www.bnk48.com/index.php?page=listMembers&memberId=46",
            "follow": [
                "https://www.facebook.com/bnk48official.fond",
                "https://www.instagram.com/fond.bnk48office"
            ],
            "graduated": false,
            "keyword": [
                "fond",
                "Fond",
                "FOND"
            ],
            "gen": 2,
            "jankenRank": 9,
            "jankenScore": 3
        },
        {
            "name": "Pakwan",
            "fullnameTh": [
                "พาขวัญ",
                "น้อยใจบุญ"
            ],
            "fullnameEn": [
                "Pakwan",
                "Noijaiboon"
            ],
            "team": [
                "Trainee"
            ],
            "birthday": "2000-02-18",
            "province": "Sakon Nakhon",
            "favorite": [
                "All animals except reptile",
                "Ice-cream",
                "Everything are pink",
                "Take a photoes",
                "Dolls",
                "Get dressed",
                "Be Curious"
            ],
            "hobby": [
                "Singing, Listening and producing songs",
                "Playing musical instrument (Violin, Ukulele, Guitar, Piano, Dulcimer - Postscript from her 'I can play but not well hahaha')",
                "Playing Sport (Basketball, Yoga, Thai Boxing, Playing with dogs)",
                "Cleaning room/House",
                "Drawing",
                "Grow a plants"
            ],
            "img": "https://cdn.statically.io/gl/cpx2017/iamprofile@main/bnk4thalbum/profile/bnk/pakwan.jpg",
            "ref": "https://www.bnk48.com/index.php?page=listMembers&memberId=32",
            "follow": [
                "https://www.facebook.com/bnk48official.pakwan",
                "https://www.instagram.com/pakwan.bnk48office"
            ],
            "graduated": false,
            "keyword": [
                "pakwan",
                "Pakwan",
                "PAKWAN"
            ],
            "gen": 2,
            "jankenRank": 10,
            "jankenScore": 2
        },
        {
            "name": "Meen",
            "fullnameTh": [
                "พิชญธิดา",
                "สนธิศักดิ์วรรณะ"
            ],
            "fullnameEn": [
                "Pitchayathida",
                "Sonthisakwanna"
            ],
            "team": "",
            "birthday": "2003-03-05",
            "province": "Chiangmai",
            "favorite": [
                "Literature",
                "Watching Series",
                "BNK48"
            ],
            "hobby": [
                "Pink-Purple",
                "Christmas",
                "Jelly"
            ],
            "img": "https://cdn.statically.io/gl/cpx2017/iamprofile@main/bnk4thalbum/profile/cgm/meen.jpg",
            "ref": "https://www.cgm48official.com/members/meen",
            "follow": [
                "https://www.facebook.com/cgm48official.meen",
                "https://www.instagram.com/meen.cgm48official"
            ],
            "graduated": false,
            "keyword": [
                "meen",
                "Meen",
                "MEEN"
            ],
            "gen": 1,
            "jankenRank": 11,
            "jankenScore": 2
        },
        {
            "name": "Kyla",
            "fullnameTh": [
                "อรัญญา",
                "เเก้วมาลัย"
            ],
            "fullnameEn": [
                "Arunya",
                "Kaewmalai"
            ],
            "team": "C",
            "birthday": "2002-01-30",
            "province": "",
            "favorite": [
                "Cats",
                "Watching movies",
                "Watching Anine",
                "Mala (Chinese Sichuan's pepper)"
            ],
            "hobby": [
                "Playing game",
                "Cosplay"
            ],
            "img": "https://cdn.statically.io/gl/cpx2017/iamprofile@main/bnk4thalbum/profile/cgm/kyla.jpg",
            "ref": "https://www.cgm48official.com/members/kyla",
            "follow": [
                "https://www.facebook.com/cgm48official.jingjing",
                "https://www.instagram.com/jingjing.cgm48official"
            ],
            "graduated": false,
            "keyword": [
                "jingjing",
                "Jingjing",
                "JINGJING"
            ],
            "gen": 1,
            "jankenRank": 12,
            "jankenScore": 2
        },
        {
            "name": "Milk",
            "fullnameTh": [
                "รตา",
                "ชินกระจ่างกิจ"
            ],
            "fullnameEn": [
                "Ratah",
                "Chinkrajangkit"
            ],
            "team": "Trainee",
            "birthday": "2002-03-27",
            "province": "Chiangmai",
            "favorite": [
                "Cats",
                "Everything are yellow",
                "Eating"
            ],
            "hobby": [
                "Producing Novels",
                "Cover Dance"
            ],
            "img": "https://cdn.statically.io/gl/cpx2017/iamprofile@main/bnk4thalbum/profile/cgm/milk.jpg",
            "ref": "https://www.cgm48official.com/members/milk",
            "follow": [
                "https://www.facebook.com/bnk48official.ratah",
                "https://www.instagram.com/ratah.bnk48official"
            ],
            "graduated": false,
            "keyword": [
                "ratah",
                "Ratah",
                "RATAH"
            ],
            "gen": 2,
            "jankenRank": 13,
            "jankenScore": 2
        },
        {
            "name": "Nenie",
            "fullnameTh": [
                "พิชญาภา",
                "สุปัญญา"
            ],
            "fullnameEn": [
                "Phitchayapha",
                "Supanya"
            ],
            "team": "C",
            "birthday": "2002-11-01",
            "province": "Udon Thani",
            "favorite": [
                "Pompompurin",
                "Hello Kitty"
            ],
            "hobby": [],
            "img": "https://cdn.statically.io/gl/cpx2017/iamprofile@main/bnk4thalbum/profile/cgm/nenie.jpg",
            "ref": "https://www.cgm48official.com/members/nenie",
            "follow": [
                "https://www.facebook.com/cgm48official.nenie",
                "https://www.instagram.com/nenie.cgm48official"
            ],
            "graduated": false,
            "keyword": [
                "nenie",
                "Nenie",
                "NENIE"
            ],
            "gen": 1,
            "jankenRank": 14,
            "jankenScore": 2
        },
        {
            "name": "Yayee",
            "fullnameTh": [
                "ณัฏฐธิดา",
                "อาสนานิ"
            ],
            "fullnameEn": [
                "Natthathida",
                "Asanani"
            ],
            "team": [
                "BIII"
            ],
            "birthday": "2001-10-09",
            "province": "Nong Khai",
            "favorite": [
                "Everything are red",
                "Hip-Hop",
                "About psychology and Feeling sense"
            ],
            "hobby": [
                "Practice Dancing",
                "Listeming music",
                "Watching cartoon"
            ],
            "img": "https://cdn.statically.io/gl/cpx2017/iamprofile@main/bnk4thalbum/profile/bnk/yayee.jpg",
            "ref": "https://www.bnk48.com/index.php?page=listMembers&memberId=95",
            "follow": [
                "https://www.facebook.com/bnk48official.yayee",
                "https://www.instagram.com/yayee.bnk48official"
            ],
            "graduated": false,
            "keyword": [
                "yayee",
                "Yayee",
                "YAYEE"
            ],
            "gen": 3,
            "jankenRank": 15,
            "jankenScore": 2
        },
        {
            "name": "Miori",
            "fullnameTh": [
                "มิโอริ",
                "โอคุโบะ"
            ],
            "fullnameEn": [
                "Miori",
                "Ohkubo"
            ],
            "team": [
                "BIII"
            ],
            "birthday": "1998-09-30",
            "province": "Ibaraki, Japan",
            "favorite": [
                "Sanrio",
                "Disney",
                "Morning Musume"
            ],
            "hobby": [
                "Singing"
            ],
            "img": "https://cdn.statically.io/gl/cpx2017/iamprofile@main/bnk4thalbum/profile/bnk/miori.jpg",
            "ref": "https://www.bnk48.com/index.php?page=listMembers&memberId=15",
            "follow": [
                "https://www.facebook.com/bnk48official.miori",
                "https://www.instagram.com/miori.bnk48official"
            ],
            "graduated": false,
            "keyword": [
                "miori",
                "Miori",
                "MIORI"
            ],
            "gen": 1,
            "jankenRank": 16,
            "jankenScore": 2
        }
    ]
}